Project 1: Exploratory Data Analysis
…
# Summary statistics for air pollutants for each state and
# for each year
joinset %>% group_by(State) %>% summarize(`Mean NO2` = mean(`NO2 Mean (ppm)`), 
    `Mean O3` = mean(`O3 Mean (ppm)`), `Mean SO2` = mean(`SO2 Mean (ppm)`), 
    `Mean CO` = mean(`CO Mean (ppm)`))

## # A tibble: 24 x 5
##    State       `Mean NO2` `Mean O3` `Mean SO2` `Mean CO`
##    <chr>            <dbl>     <dbl>      <dbl>     <dbl>
##  1 Arizona          19.7     0.0275      1.59      0.509
##  2 Arkansas          9.47    0.0297      1.29      0.381
##  3 California       13.0     0.0264      1.28      0.430
##  4 Colorado         16.8     0.0234      1.61      0.477
##  5 Connecticut       9.98    0.0313      1.07      0.312
##  6 Florida           8.52    0.0280      0.702     0.586
##  7 Idaho             7.67    0.0283      0.257     0.159
##  8 Illinois         19.0     0.0262      4.70      0.491
##  9 Indiana          12.5     0.0320      5.38      0.523
## 10 Iowa              6.56    0.0312      0.327     0.245
## # … with 14 more rows

joinset %>% group_by(State) %>% summarize(`SD NO2` = sd(`NO2 Mean (ppm)`), 
    `SD O3` = sd(`O3 Mean (ppm)`), `SD SO2` = sd(`SO2 Mean (ppm)`), 
    `SD CO` = sd(`CO Mean (ppm)`))

## # A tibble: 24 x 5
##    State       `SD NO2`   `SD O3` `SD SO2` `SD CO`
##    <chr>          <dbl>     <dbl>    <dbl>   <dbl>
##  1 Arizona         5.96  0.000729    0.466   0.185
##  2 Arkansas       NA    NA          NA      NA    
##  3 California      2.34  0.000708    0.436   0.118
##  4 Colorado        4.87  0.00220     0.945   0.126
##  5 Connecticut    NA    NA          NA      NA    
##  6 Florida         3.36  0.000935    0.694   0.177
##  7 Idaho          NA    NA          NA      NA    
##  8 Illinois        7.12  0.00511     2.41    0.182
##  9 Indiana         3.46  0.00295     2.63    0.435
## 10 Iowa           NA    NA          NA      NA    
## # … with 14 more rows

joinset %>% group_by(State) %>% summarize(`Minimum NO2` = min(`NO2 Mean (ppm)`), 
    `Minimum O3` = min(`O3 Mean (ppm)`), `Minimum SO2` = min(`SO2 Mean (ppm)`), 
    `Minimum CO` = min(`CO Mean (ppm)`))

## # A tibble: 24 x 5
##    State       `Minimum NO2` `Minimum O3` `Minimum SO2` `Minimum CO`
##    <chr>               <dbl>        <dbl>         <dbl>        <dbl>
##  1 Arizona             14.7        0.0269         1.11         0.342
##  2 Arkansas             9.47       0.0297         1.29         0.381
##  3 California          11.2        0.0256         0.773        0.333
##  4 Colorado            13.6        0.0214         0.721        0.333
##  5 Connecticut          9.98       0.0313         1.07         0.312
##  6 Florida              5.06       0.0271         0.154        0.383
##  7 Idaho                7.67       0.0283         0.257        0.159
##  8 Illinois            11.8        0.0204         1.98         0.329
##  9 Indiana              8.52       0.0289         3.28         0.131
## 10 Iowa                 6.56       0.0312         0.327        0.245
## # … with 14 more rows

joinset %>% group_by(State) %>% summarize(`Maximum NO2` = max(`NO2 Mean (ppm)`), 
    `Maximum O3` = max(`O3 Mean (ppm)`), `Maximum SO2` = max(`SO2 Mean (ppm)`), 
    `Maximum CO` = max(`CO Mean (ppm)`))

## # A tibble: 24 x 5
##    State       `Maximum NO2` `Maximum O3` `Maximum SO2` `Maximum CO`
##    <chr>               <dbl>        <dbl>         <dbl>        <dbl>
##  1 Arizona             26.3        0.0283         2.04         0.708
##  2 Arkansas             9.47       0.0297         1.29         0.381
##  3 California          15.6        0.0269         1.55         0.561
##  4 Colorado            22.4        0.0257         2.60         0.562
##  5 Connecticut          9.98       0.0313         1.07         0.312
##  6 Florida             11.8        0.029          1.48         0.700
##  7 Idaho                7.67       0.0283         0.257        0.159
##  8 Illinois            26.0        0.0301         6.57         0.688
##  9 Indiana             14.5        0.0347         8.32         0.992
## 10 Iowa                 6.56       0.0312         0.327        0.245
## # … with 14 more rows
…
